{
"comments":[
	"Updated:",
"1/1/2021",
"",
"change wording and style of HTML preface regarding popups",
"",
"Change boilerplate for using Json system, and for ease of use",
"  NOTE that the boilerplate has inner Map's for each type of ",
"  output formatting, such as VANLIGHT. Within each of these Maps",
"  is a List with a single MAP containing",
"  keyword/value pairs. This makes it easier to perform",
"  lookup",
"",
"EVERYTHING else remains Lists of strings that are written",
"  to the output files",
"",
"updated Sun 26 Jul 2020 10:40:26 AM CDT",
" now make for two flavors of VANILLA as a layout system ",
" add VANILLA as a layout system ",
"  ALL entries will be grouped and start with name of format, such as 'POEM",
"updated 5/21/2017 for project-agnostic, format-specific project",
"NOTHING IN HERE will be specific to any project",
"NOT USED, only for documentation",
"For HTML, we have to manually make a table of contents(see documentation below)",
"12/16/2017 -- Add comments used later to inject special Javascript for MPHS online viewing",
"",
"Static front material is for each web page",
"  Table of contents are only the heading (one string)",
"  rest are created from the MANIFEST information"

],


"title_page":{
"POEM":[
  "<h1 id=\"_title_page\">",
"${PROJECT_TITLE}",
"<br/>",
"By: ${PROJECT_AUTHOR}",
"<br/>",
"</h1>",

"<a href=\"#index\">Jump to Indexes</a>",
"<!-- end of page, but no POEM termination  -->\n\n"],
"SKEL":[
  "<h1 id=\"_title_page\">",
"${PROJECT_TITLE}",
"<br/>",
"By: ${PROJECT_AUTHOR}",
"<br/>",
"</h1>",

"<a href=\"#index\">Jump to Indexes</a>",
"<!-- end of page, but no skeleton termination  -->\n\n"],
"VANLIGHT":[
  "<h1 id=\"_title_page\">",
"${PROJECT_TITLE}",
"<br/>",
"By: ${PROJECT_AUTHOR}",
"<br/>",
"</h1>",

"<a href=\"#index\">Jump to Indexes</a>",
"<!-- end of page, but no vanilla termination  -->\n\n"],
"VANDARK":[
  "<h1 id=\"_title_page\">",
"${PROJECT_TITLE}",
"<br/>",
"By: ${PROJECT_AUTHOR}",
"<br/>",
"</h1>",

"<a href=\"#index\">Jump to Indexes</a>",
"<!-- end of page, but no vanilla termination  -->\n\n"]
},

"front_page":
{
"POEM":[
  "<a name=\"_front_page\"></a>",
"${PROJECT_FRONT_MATTER}",
"<br/>",
"<br/>",
"<br/>",
"<br/>",
"<a href=\"#index\">Jump to Indexes</a>",
"<!-- end of page, but no POEM termination  -->\n\n"],        
"SKEL":[
  "<a name=\"_front_page\"></a>",
"${PROJECT_FRONT_MATTER}",
"<br/>",
"<br/>",
"<br/>",
"<br/>",
"<a href=\"#index\">Jump to Indexes</a>",
"<!-- end of page, but no skeleton termination  -->\n\n"],
"VANLIGHT":[
  "<a name=\"_front_page\"></a>",
"${PROJECT_FRONT_MATTER}",
"<br/>",
"<br/>",
"<br/>",
"<br/>",
"<a href=\"#index\">Jump to Indexes</a>",
"<!-- end of page, but no vanilla termination  -->\n\n"],
"VANDARK":[
  "<a name=\"_front_page\"></a>",
"${PROJECT_FRONT_MATTER}",
"<br/>",
"<br/>",
"<br/>",
"<br/>",
"<a href=\"#index\">Jump to Indexes</a>",
"<!-- end of page, but no vanilla termination  -->\n\n"]
},

"cover_page":
{
"POEM":[
  "<h1 id=\"_cover_page\">",
"<br/>",
"<img src=\"pics/${PROJECT_COVER_IMAGE}\" alt=\"[Book Cover]\"",
"width=\"95%\" ",
"style=\"color:black;border:solid;border-width:2px\"/>",
"</h1>",
"<br/>",
"<br/>",
"<br/>",
"<br/>",
"<a href=\"#index\">Jump to Indexes</a>",
"<br/>",
"<br/>",
"<!-- end of page, but no POEM termination  -->\n\n"
],
"SKEL":[
  "<h1 id=\"_cover_page\">",
"<br/>",
"<img src=\"pics/${PROJECT_COVER_IMAGE}\" alt=\"[Book Cover]\"",
"width=\"95%\" ",
"style=\"color:black;border:solid;border-width:2px\"/>",
"</h1>",
"<br/>",
"<br/>",
"<br/>",
"<br/>",
"<a href=\"#index\">Jump to Indexes</a>",
"<br/>",
"<br/>",
"<!-- end of page, but no skeleton termination  -->\n\n"
],
"VANLIGHT":[
  "<h1 id=\"_cover_page\">",
"<br/>",
"<img src=\"pics/${PROJECT_COVER_IMAGE}\" alt=\"[Book Cover]\"",
"width=\"95%\" ",
"style=\"color:black;border:solid;border-width:2px\"/>",
"</h1>",
"<br/>",
"<br/>",
"<br/>",
"<br/>",
"<a href=\"#index\">Jump to Indexes</a>",
"<br/>",
"<br/>",
"<!-- end of page, but no vanilla termination  -->\n\n"
],
"VANDARK":[
  "<h1 id=\"_cover_page\">",
"<br/>",
"<img src=\"pics/${PROJECT_COVER_IMAGE}\" alt=\"[Book Cover]\"",
"width=\"95%\" ",
"style=\"color:black;border:solid;border-width:2px\"/>",
"</h1>",
"<br/>",
"<br/>",
"<br/>",
"<br/>",
"<a href=\"#index\">Jump to Indexes</a>",
"<br/>",
"<br/>",
"<!-- end of page, but no vanilla termination  -->\n\n"
]
},

    "static_header":
{
"POEM":[
        "<?xml version=\"1.0\" encoding=\"utf-8\"?>\n",
        "<!DOCTYPE html\n",
        "PUBLIC \"-//W3C//DTD XHTML 1.0 Strict//EN\" \"http://www.w3.org/TR/xhtml1/DTD/xhtml1-strict.dtd\">\n",
        "<html>\n",
        "<!-- start static header content -->",
        "<head>\n",
"<!-- COMMENT NO EXTERNAL ACCESS, this page is for offline reading -->\n",
        "<meta http-equiv=\"Content-Type\" content=\"text/html\"/>\n",
        "<meta name=\"Author\" content=\"${PROJECT_AUTHOR}\"/>",
"${PROJECT_COPYRIGHT}",
"<!-- hard-code CSS, not this <link rel=\"STYLESHEET\" href=\"PROJECT_HTML_CSS\"/> -->",
"<link rel=\"stylesheet\" href=\"poem.css\"/>",
"<script type=\"text/javascript\" src=\"poem.js\"> <!-- for layout -->",
"<!-- must be full tag set to work with IE 6 --></script>",

       "<title>${PROJECT_TITLE}</title>",
       "<meta name=\"keywords\" content=\"",
" PROJECT_KEYWORDS",
"\"/>",
        "<meta name=\"description\" content=\"${PROJECT_DESCRIPTION}\"/>\n",
        "<meta name=\"EPB-UUID\" content=\"${PROJECT_ISBN}\"/>\n",

"  <meta name=\"viewport\" content=\"width=device-width, initial-scale=1\"/>",

        "<script type=\"text/javascript\" src=\"utility.js\">\n",
        "<!-- must be full tag set to work with IE 6 -->\n",
        "</script>\n",
                 
"<!-- override POEM settings and add special items for our use -->\n",
"<style type=\"text/css\">\n",
"a\n",
"  {\n",
"  font-size: 80%; \n",
"  /* font-size: 110%; */\n",
"  }\n",
"  a.seealso\n",
"  {\n",
"  font-size: 100%;  /* inline no special size */\n",
"  }\n",
"p.caption\n",
"  {\n",
"   clear:left; \n",
"   font-size: 80%; \n",
"   font-style: italic;\n",
"  }\n",
"</style>\n",
"${TTOCC}",

"<!-- google analytics SCRIPTS would be here -->\n",
        "</head>\n",
        "<body>\n",
"<!-- boilerplate for top of webpage -->\n",
"<script type=\"text/javascript\" >\n",
"    write_controls1();\n",
"</script>\n",
"<!-- DO NOT encase title in Javascript, let it be found by search engines -->\n",
"<script type=\"text/javascript\" >\n",
"    write_controls2('Updated ${PROJECT_PUBLISH_DATE}');\n",
"</script>\n",

        "<!-- end poem static header content -->\n\n" 
],
"SKEL":[
        "<?xml version=\"1.0\" encoding=\"utf-8\"?>\n",
        "<!DOCTYPE html\n",
        "PUBLIC \"-//W3C//DTD XHTML 1.0 Strict//EN\" \"http://www.w3.org/TR/xhtml1/DTD/xhtml1-strict.dtd\">\n",
        "<html>\n",
        "<!-- start static header content -->",
        "<head>\n",
"<!-- COMMENT NO EXTERNAL ACCESS, this page is for offline reading -->\n",
        "<meta http-equiv=\"Content-Type\" content=\"text/html\"/>\n",
        "<meta name=\"Author\" content=\"${PROJECT_AUTHOR}\"/>",
"${PROJECT_COPYRIGHT}",
"<!-- hard-code CSS, not this <link rel=\"STYLESHEET\" href=\"PROJECT_HTML_CSS\"/> -->",
"<link rel=\"stylesheet\" href=\"skeleton.css\"/>",

       "<title>${PROJECT_TITLE}</title>",
       "<meta name=\"keywords\" content=\"",
"${PROJECT_KEYWORDS}",
"\"/>",
        "<meta name=\"description\" content=\"${PROJECT_DESCRIPTION}\"/>\n",
        "<meta name=\"EPB-UUID\" content=\"${PROJECT_ISBN}\"/>\n",

"  <meta name=\"viewport\" content=\"width=device-width, initial-scale=1\"/>",

        "<script type=\"text/javascript\" src=\"utility.js\">\n",
        "<!-- must be full tag set to work with IE 6 -->\n",
        "</script>\n",
                 
"<!-- override skeleton settings and add special items for our use -->\n",
"<style type=\"text/css\">\n",
"a\n",
"  {\n",
"  font-size: 80%; \n",
"  /* font-size: 110%; */\n",
"  }\n",
"  a.seealso\n",
"  {\n",
"  font-size: 100%;  /* inline no special size */\n",
"  }\n",
"p.caption\n",
"  {\n",
"   clear:left; \n",
"   font-size: 80%; \n",
"   font-style: italic;\n",
"  }\n",
"</style>\n",
"${TTOCC}",

"<!-- google analytics SCRIPTS would be here -->\n",
        "</head>\n",
        "<body>\n",
"<div class=\"container\">",
"<div class=\"row\">",
      
"<div class=\"twelve columns\" style=\"margin-top: 5%\">",
        "<!-- end skeleton static header content -->\n\n" 
],
"VANLIGHT":[
        "<?xml version=\"1.0\" encoding=\"utf-8\"?>\n",
        "<!DOCTYPE html\n",
        "PUBLIC \"-//W3C//DTD XHTML 1.0 Strict//EN\" \"http://www.w3.org/TR/xhtml1/DTD/xhtml1-strict.dtd\">\n",
        "<html>\n",
        "<!-- start VANILLA static header content -->",
        "<head>\n",
"<!-- COMMENT NO EXTERNAL ACCESS, this page is for offline reading -->\n",
        "<meta http-equiv=\"Content-Type\" content=\"text/html\"/>\n",
        "<meta name=\"Author\" content=\"${PROJECT_AUTHOR}\"/>",
"${PROJECT_COPYRIGHT}",
"<!-- hard-code CSS, not this <link rel=\"STYLESHEET\" href=\"PROJECT_HTML_CSS\"/> -->",
"<link rel=\"stylesheet\" href=\"vanilla-framework-version-2.0.1.min.css\"/>",

       "<title>${PROJECT_TITLE}</title>",
       "<meta name=\"keywords\" content=\"",
"${PROJECT_KEYWORDS}",
"\"/>",
        "<meta name=\"description\" content=\"${PROJECT_DESCRIPTION}\"/>\n",
        "<meta name=\"EPB-UUID\" content=\"${PROJECT_ISBN}\"/>\n",

"  <meta name=\"viewport\" content=\"width=device-width, initial-scale=1\"/>",

        "<script type=\"text/javascript\" src=\"utility_v.js\">\n",
        "<!-- vanilla version, and...must be full tag set to work with IE 6 -->\n",
        "</script>\n",
                 
"<!-- override vanilla settings and add special items for our use -->\n",
"<!-- THIS STUFF should probably be more project-specific and added to the OVERRIDE above -->",
"<!-- except we are dealing with link colors here -->",
"<style type=\"text/css\">\n",
"  a:link { /* no color change here color: #ff0; */ font-size: 100%; /* font-size: 100%;   inline no special size */ }",
"  a:visited { /* no color change here color: #aa0; */ font-size: 100%; /* font-size: 100%;   inline no special size */ }",
"  a:link.seealso { /* no color change here color: #ff0; */ font-size: 110%; /* font-size: 100%;   inline no special size */ }",
"  a:visited.seealso { /* no color change here color: #aa0; */ font-size: 110%; /* font-size: 100%;   inline no special size */ }",
"p.caption\n",
"  {\n",
"   clear:left; \n",
"   font-size: 80%; \n",
"   font-style: italic;\n",
"  }\n",
"</style>\n",
"${TTOCC}",

"<!-- google analytics SCRIPTS would be here -->\n",
        "</head>\n",
        "<body>\n",
"<!-- vanilla light boilerplate for top of webpage -->\n",
"<!-- using normal white background p-strip here, NOT dark <section class='p-stripdashdashaccent ' -->",
"<section class=\"p-strip \" style=\"border: 1px solid #cdcdcd;\">",
  "<div class=\"row\">",
    "<div class=\"col-12\">",
        "<!-- end VANILLA light static header content -->\n\n" 
],
"VANDARK":[
        "<?xml version=\"1.0\" encoding=\"utf-8\"?>\n",
        "<!DOCTYPE html\n",
        "PUBLIC \"-//W3C//DTD XHTML 1.0 Strict//EN\" \"http://www.w3.org/TR/xhtml1/DTD/xhtml1-strict.dtd\">\n",
        "<html>\n",
        "<!-- start VANILLA static header content -->",
        "<head>\n",
"<!-- COMMENT NO EXTERNAL ACCESS, this page is for offline reading -->\n",
        "<meta http-equiv=\"Content-Type\" content=\"text/html\"/>\n",
        "<meta name=\"Author\" content=\"${PROJECT_AUTHOR}\"/>",
"${PROJECT_COPYRIGHT}",
"<!-- hard-code CSS, not this <link rel=\"STYLESHEET\" href=\"PROJECT_HTML_CSS\"/> -->",
"<link rel=\"stylesheet\" href=\"vanilla-framework-version-2.0.1.min.css\"/>",

       "<title>${PROJECT_TITLE}</title>",
       "<meta name=\"keywords\" content=\"",
"${PROJECT_KEYWORDS}",
"\"/>",
        "<meta name=\"description\" content=\"${PROJECT_DESCRIPTION}\"/>\n",
        "<meta name=\"EPB-UUID\" content=\"${PROJECT_ISBN}\"/>\n",

"  <meta name=\"viewport\" content=\"width=device-width, initial-scale=1\"/>",

        "<script type=\"text/javascript\" src=\"utility_v.js\">\n",
        "<!-- vanilla popup version, and ..... must be full tag set to work with IE 6 -->\n",
        "</script>\n",
                 
"<!-- override vanilla settings and add special items for our use -->\n",
"<!-- THIS STUFF should probably be more project-specific and added to the OVERRIDE above -->",
"<!-- HOWEVER, these link colors will only work with DARK mode -->",
"<style type=\"text/css\">\n",
"  a:link { color: #ff0; font-size: 100%; /* font-size: 100%;   inline no special size */ }",
"  a:visited { color: #aa0; font-size: 100%; /* font-size: 100%;   inline no special size */ }",
"  a:link.seealso { color: #ff0; font-size: 110%; /* font-size: 100%;   inline no special size */ }",
"  a:visited.seealso { color: #aa0; font-size: 110%; /* font-size: 100%;   inline no special size */ }",
"p.caption\n",
"  {\n",
"   clear:left; \n",
"   font-size: 80%; \n",
"   font-style: italic;\n",
"  }\n",
"</style>\n",
"${TTOCC}",

"<!-- google analytics SCRIPTS would be here -->\n",
        "</head>\n",
        "<body>\n",
"<!-- vanilla boilerplate for top of webpage -->\n",
"<!-- specifically the dark background 'dashdashaccent' is used in this mode -->",
"<section class='p-strip--accent ' >",
  "<div class='row'>",
    "<div class='col-12'>",
        "<!-- end VANILLA dark static header content -->\n\n" 
]
},

"TOCcomments":[
"NOT USED, only for documentation",
"  Table of contents are only the heading (one string)",
" all entries are created from the MANIFEST, not from here"

],

"table_of_contents":
{
"POEM":[
            "<h1 id=\"top\" >Table of Contents</h1>"
            
],
"SKEL":[
            "<h1 id=\"top\" >Table of Contents</h1>"
            
],
"VANLIGHT":[
            "<h1 id=\"top\" >Table of Contents </h1>"
            
],
"VANDARK":[
            "<h1 id=\"top\" >Table of Contents </h1>"
            
]
},

    "preface_page":
{
"POEM":[
  "<h3 id=\"_preface_page\">",
"Preface for HTML Users</h1>",
"<p>",
"This is a version of the ${PROJECT_TYPE} for use in a web browser. As such, this ${PROJECT_TYPE} is a completely",
"self-contained, interactive product, just as if you were reading a website. ",
"The 'index' links within the document point to both a Table of Contents and all document indexes, if present.",
"The ${PROJECT_TYPE} is meant to be read in any order, with",
"no specific flow, but since this web page is a single HTML file,",
"most content will flow downward from the beginning.",
"With your web browser, you have complete control to move 'back' through your reading pathway. ",
"Not all EPUB or PDF readers can do that, and they often require a specific reading flow from page to page. Both the indexes and Table",
"of Contents are made up of links that will send you to the appropriate text or illustration.",
"</p>",
"<p>",
"The illustrations seen in-line are smaller thumbnails of the full illustrations.",
"Clicking on an images caption (if any) activates a pop-up window with a higher-quality illustration.",
"Use of this feature requires that you configure your browser to 'allow pop-up",
"windows'. The method of enabling this feature differs with each browser type.",
"<br/>",
"<br/>",
"<br/>",
"<br/>",
"<br/>",
"<a href=\"#index\">Jump to Indexes</a>",
"</p>",
"<!-- end of page, but no POEM termination  -->\n\n"
],
"SKEL":[
  "<h3 id=\"_preface_page\">",
"Preface for HTML Users</h1>",
"<p>",
"This is a version of the ${PROJECT_TYPE} for use in a web browser. As such, this ${PROJECT_TYPE} is a completely",
"self-contained, interactive product, just as if you were reading a website. ",
"The 'index' links within the document point to both a Table of Contents and all document indexes, if present.",
"The ${PROJECT_TYPE} is meant to be read in any order, with",
"no specific flow, but since this web page is a single HTML file,",
"most content will flow downward from the beginning.",
"With your web browser, you have complete control to move 'back' through your reading pathway. ",
"Not all EPUB or PDF readers can do that, and they often require a specific reading flow from page to page. Both the indexes and Table",
"of Contents are made up of links that will send you to the appropriate text or illustration.",
"</p>",
"<p>",
"The illustrations seen in-line are smaller thumbnails of the full illustrations.",
"Clicking on an images caption (if any) activates a pop-up window with a higher-quality illustration.",
"Use of this feature requires that you configure your browser to 'allow pop-up",
"windows'. The method of enabling this feature differs with each browser type.",
"<br/>",
"<br/>",
"<br/>",
"<br/>",
"<br/>",
"<a href=\"#index\">Jump to Indexes</a>",
"</p>",
"<!-- end of page, but no skeleton termination  -->\n\n"
],
"VANDARK":[
  "<h3 id=\"_preface_page\">",
"Preface for HTML Users</h1>",
"<p>",
"This is a version of the ${PROJECT_TYPE} for use in a web browser. As such, this ${PROJECT_TYPE} is a completely",
"self-contained, interactive product, just as if you were reading a website. ",
"The 'index' links within the document point to both a Table of Contents and all document indexes, if present.",
"The ${PROJECT_TYPE} is meant to be read in any order, with",
"no specific flow, but since this web page is a single HTML file,",
"most content will flow downward from the beginning.",
"With your web browser, you have complete control to move 'back' through your reading pathway. ",
"Not all EPUB or PDF readers can do that, and they often require a specific reading flow from page to page. Both the indexes and Table",
"of Contents are made up of links that will send you to the appropriate text or illustration.",
"</p>",
"<p>",
"The illustrations seen in-line are smaller thumbnails of the full illustrations.",
"Clicking on an images caption (if any) activates a pop-up window with a higher-quality illustration.",
"Use of this feature requires that you configure your browser to 'allow pop-up",
"windows'. The method of enabling this feature differs with each browser type.",
"<br/>",
"<br/>",
"<br/>",
"<br/>",
"<br/>",
"<a href=\"#index\">Jump to Indexes</a>",
"</p>",
"<!-- end of page, but no vanilla termination  -->\n\n"
],
"VANLIGHT":[
  "<h3 id=\"_preface_page\">",
"Preface for HTML Users</h1>",
"<p>",
"This is a version of the ${PROJECT_TYPE} for use in a web browser. As such, this ${PROJECT_TYPE} is a completely",
"self-contained, interactive product, just as if you were reading a website. ",
"The 'index' links within the document point to both a Table of Contents and all document indexes, if present.",
"The ${PROJECT_TYPE} is meant to be read in any order, with",
"no specific flow, but since this web page is a single HTML file,",
"most content will flow downward from the beginning.",
"With your web browser, you have complete control to move 'back' through your reading pathway. ",
"Not all EPUB or PDF readers can do that, and they often require a specific reading flow from page to page. Both the indexes and Table",
"of Contents are made up of links that will send you to the appropriate text or illustration.",
"</p>",
"<p>",
"The illustrations seen in-line are smaller thumbnails of the full illustrations.",
"Clicking on an images caption (if any) activates a pop-up window with a higher-quality illustration.",
"Use of this feature requires that you configure your browser to 'allow pop-up",
"windows'. The method of enabling this feature differs with each browser type.",
"<br/>",
"<br/>",
"<br/>",
"<br/>",
"<br/>",
"<a href=\"#index\">Jump to Indexes</a>",
"</p>",
"<!-- end of page, but no vanilla termination  -->\n\n"
]
},


"boilerplateCOMMENTS": 
	[
		"COMMENTS",
		"  each subtype such as VANLIGHT, is a Map",
		"  within the Map is a List with a single Map inside",
		"  that Map has key/value pairs, which will use direct",
		"  lookup in the Java code.",
		"  ",
		"NOTE that there are HTML tags for images, but that code",
		"  became so complex that it is back to being done in Java.",
		"  Soooo, the boilerplate for images is mostly not used.",
		"",
		"ALSO note that I put markers at the top and bottom of each",
		"  Map for each subtype. The keyword names are purposely unusable",
		""
	],

"boilerplate": 
{
"POEM":[
	{
"POEMHERExxxxxxxx":"start boilerplate for POEM",
"SKELETON_PAGE_CLOSE":"<!-- terminate page, but no POEM termination -->\n",
"SKELETON_PAGE_CLOSEprev":"<!-- terminate POEM --><script type=\"text/javascript\" >\nfinal_cleanup(); // final javascript work to prepare to operate\n</script>\n</body></html>\n",
"HIDDEN_MESSAGE":"",

"LINE_BREAK":"<br/>\n",
"LINE_BREAK2":"<br />",

   "TOC_LINK1":"<p ><a href=\"#top\">Table of Contents</a></p>",
"TOC_LINK2": ">Table of Contents</a></p>",
"END_SECTION":"</div> <!-- end wide col --></div> <!-- end wide row --></div> <!-- main section container -->\n",

"END_BODY": "<!-- terminate page, but no POEM termination  -->\n",
"END_BODY_FINAL": "<!-- terminate POEM --><script type=\"text/javascript\" >\nfinal_cleanup(); // final javascript work to prepare to operate\n</script>\n</body></html>\n",
"END_BODYprev": "<!-- terminate POEM --><script type=\"text/javascript\" >\nfinal_cleanup(); // final javascript work to prepare to operate\n</script>\n</body></html>\n",

"ABBREVIATION_START":"<!-- start of abbreviation listing -->\n<p><a id=\"_appendixh\"></a>\n",
"ABBREVIATION_TABLE_START":"<br/><br/><br/></p><table>\n",
"ABBREVIATION_TABLE_ROW":"<tr>\n",
"ABBREVIATION_TABLE_CELL1":"<td>",
"ABBREVIATION_TABLE_CELL2":"</td><td>", 
"ABBREVIATION_TABLE_CELL_END":"</td></tr>\n",
"ABBREVIATION_TABLE_END":"</table>\n",
"PARAGRAPH_START":"<p>\n",
"PARAGRAPH_END":"</p>\n",
"PARAGRAPH_ANCHOR_START1":"<p id=\"",
"PARAGRAPH_ANCHOR_START2":"<p  id=\"",

"LIST_END":"</ul>\n",
"LIST_START":"<ul >\n",
"LIST_START_FONT1":"<ul style=\"font-size: ",
"LIST_START_FONT2":"%;\">\n",
"UNDERLINE_END":"</u>\n",
"UNDERLINE_START":"<u >\n",

"LIST_ITEM_START1":"<li id=\"",
"LIST_ITEM_START2":"<li>",
"LIST_ITEM_END":"</li>",


"TAG_ID_END": "\">",
"TAG_ID_MIDDLE":"\" ",
"REFERENCE_PARAGRAPH_START":"<p >\n",

"PARAGRAPH_SEPARATOR_START1":"<hr  id=\"",

"PARAGRAPH_SEPARATOR_START2": "\"></hr>\n",
"SEPARATOR_PARAGRAPH":"<hr />\n",
 
"NEWLINE":"\n",

"IMAGE_ANCHOR_START":"<p><br/><img id=\"",
"IMAGE_ANCHOR_START_SIMPLE":"<p><br/><img ",
"IMAGE_ANCHOR2":"\" src=\"",
"IMAGE_SOURCE_START":"<p><br/><img src=\"",
"IMAGE_LOC1":"\" alt=\"[", 
"IMAGE_LOC2":"]\" width=\"300\" style=\"color:black;border:solid;border-width:2px\" />\n", 

"IMAGE_CAPTION1":"<br/><br/><i>", 
"IMAGE_CAPTION2": "</i><br/><br/>\n",
"IMAGE_CAPTION_START_OLD":"</p> <p style=\"clear:left; font-style: italic;\">",
"IMAGE_CAPTION_START":"</p> <p class=\"caption\">",
             

"PARAGRAPH_ID_BOLD_START":"\"><b>",
"PARAGRAPH_BOLD_END":"</b></p>\n",
"PARAGRAPH_BOLD_START":"<p><b>",        
"INDEX_LINK_START":"<a href=\"#index",  
"INDEX_LINK_END":">Index</a>\n",
"TOC_LINK_START":"<a href=\"TableOfContents",
"TOC_LINK_END":">TOC</a>\n",

"START_LIST":"<ul>\n",
"HEADER_START":"<h",
"HEADER_END":"</h",
"ANCHOR_START":" id=\"",
"SIMPLE_ANCHOR_START":"<a id=\"",
"TAG_END":">\n",
"HEADER1_START":"<h1>",
"HEADER_ID1":"<h1 id=\"",
"HEADER_ID2":"\">",
"HEADER_ID3":"\"" ,
"HEADER_ID4":"<h1 ",


"HEADER1_END":"</h1>\n",
"CITY_HEADER_STARTNOTUSED": "<h3   style=\"padding-top:10pt;\" id=\"state_",
"CITY_HEADER_START": "<h3   style=\"padding-top:10pt; border:solid .1em #aaa;text-align:center;\"  id=\"state_",
"FACILITY_HEADER_START":"<h4   id=\"state_",

"FACILITY_INDEX_START":"<h4 id=\"facility_index\" >All Facilities</h4>\n",
   

"QUOTE_START":"<q>",
"QUOTE_END":"</q>",

"CITE_START":"<cite>",
"CITE_END": "</cite>",

"BLOCKQUOTE_START":"\n<p><blockquote>",
"BLOCKQUOTE_END":"</blockquote></p>\n",

"EMPHASIZED_START":"<b>",
"EMPHASIZED_END":"</b>",


"PARAGRAPH_START2":"<p >", 


"CITY_HEADER_END":"</h3>\n",
"CITY_HEADER_ENDx":"</h3><p>\n",
"FACILITY_HEADER_END":"</h4>\n",
"FACILITY_HEADER_ENDx":"</h4><p>\n",


"STATE_ANCHOR_START":"<p><a id=\"state_",
"STATE_HEADING_START":"<h1   id=\"state_",
"GENERAL_ANCHOR_START":"<p><a id=\"general_",
"GENERAL_ANCHOR_START2":"<a id=\"general_",
"ANCHOR_END": "\"></a>\n",
"SIMPLE_ANCHOR_END": "</a>\n",
"ENDING_BOILERPLATE": "<!-- terminate page, but no POEM termination  -->\n",
"ENDING_BOILERPLATEprev": "<!-- terminate POEM --><script type=\"text/javascript\" >\nfinal_cleanup(); // final javascript work to prepare to operate\n</script>\n</body></html>\n",

"ENDING_INDEX_BOILERPLATE":"<!-- terminate page, but no POEM termination  -->\n",
"ENDING_INDEX_BOILERPLATEprev":"<!-- terminate POEM --><script type=\"text/javascript\" >\nfinal_cleanup(); // final javascript work to prepare to operate\n</script>\n</body></html>\n",

"POSTFIX_CONTENT":"<hr /><!-- <h1 >More Links</h1> --><p ><a href=\"#top\">Table of Contents</a></p>\n",
"POSTFIX_CONTENT_not_used":"<hr /><h1 >More Links</h1><p ><a href=\"#top\">Table of Contents</a></p>\n",


"CITY_ANCHOR_MARKER":"_city_" , 
"FACILITY_ANCHOR_MARKER":"_fac_" , 
"SOURCE_PAGE_HEADER_START":"<p>Source Page: ",
"OPEN_DATE_HEADER_START":"<p>Open: ",
"CLOSE_DATE_HEADER_START":"<p>Closed: ",
"TROOP_COUNT_HEADER_START":"<p>Maximum Troops: ",
"HOSPITAL_ADMISSION_HEADER_START":"<p>Hosp. Admissions: ",

"FACILITY_FOOTER1":"<p ><a href=\"#top\">Top</a>\n<a href=\"#state_",
"FACILITY_FOOTER2":"<a href=\"#state_",
"FACILITY_FOOTER_END":"<a href=\"#index\">Index</a></p>\n",

"INLINE_IMAGE_START1":"<p ><br /><a id=\"",
"INLINE_IMAGE_START2":"\"",
"INLINE_IMAGE_START3":"<p ><br /><a ",
"INLINE_IMAGE_START4":" href=\"javascript:pop_up_image('",
"INLINE_IMAGE_START5":"',", 
"INLINE_IMAGE_START6":"'", 
"INLINE_IMAGE_START7":"');\"><img ",
"INLINE_IMAGE_START8":"',null,'--');\"><img ",
"INLINE_IMAGE_START9":"<p ><br /><img id=\"",
"INLINE_IMAGE_START10":"<p ><br /><img ",


"INLINE_IMAGE_ALT":"alt=\"[", 
"INLINE_IMAGE_STYLE":"]\" style=\"color:black;border:solid;border-width:2px\" src=\"thumbs/", 
"INLINE_IMAGE_END":"\"/></a>\n", 
"INLINE_IMAGE_END2":"\"/>\n", 


"INDEX_CRUMB1":"<a href=\"#",
"INDEX_CRUMB10":"<p><a href=\"#",
"INDEX_TARGET1":"<a href=\"",
"INDEX_SEEALSO_TARGET1":"<a class=\"seealso\" href=\"",
"INDEX_TARGET10":"<p><a href=\"",
"INDEX_TARGET2":"#",
"INDEX_CRUMB2":"\">",
"INDEX_CRUMB10_END":"</a></p>\n",
"INDEX_CRUMB_END":"</a>\n",

"POPUP_CLOSE":"<a href=\"javascript:self.close()\">Close</a> the popup.",


"STATE_INDEX_ID":"_state_index",
"STATE_INDEX_TITLE":"State Index",
"CITY_INDEX_ID":"_city_index",
"CITY_INDEX_TITLE":"City Index",
"FACILITY_INDEX_ID":"_facility_index",
"FACILITY_INDEX_TITLE":"Facility Index",
"FACILITY_NO_INDEX_ID":"_facilityno_index",
"FACILITY_NO_INDEX_TITLE":"Facility (No Postal History) Index",
"GENERAL_INDEX_ID":"_general_index",
"GENERAL_INDEX_TITLE":"General Index",
"POEMHEREENDxxxxxxxxx":"comment: end boilerplate for POEM"
	}
],
"SKEL":[
	{
"SKELETONHERExxxxx":"start boilerplate for SKELETON",
"SKELETON_PAGE_CLOSEprev":"</div> <!-- container --></body></html>\n",
"SKELETON_PAGE_CLOSE":"<!-- terminate page, but no skeleton termination -->\n",
"INDEX_SEEALSO_TARGET1":"<a class='seealso'  href=\"",
"HIDDEN_MESSAGE":"",

"LINE_BREAK":"<br/>\n",
"LINE_BREAK2":"<br />",

   "TOC_LINK1":"<p ><a href=\"#top\">Table of Contents</a></p>",
"TOC_LINK2": ">Table of Contents</a></p>",
"END_SECTION":"</div> <!-- end wide col --></div> <!-- end wide row --></div> <!-- main section container -->\n",

"END_BODY":" <!-- end main skeleton section --> <!-- end all skeleton content --></body></html>\n",
"END_BODY_FINAL":" <!-- end main skeleton(f) section --> <!-- end all skeleton(f) content --></body></html>\n",
"ABBREVIATION_START":"<!-- start of abbreviation listing -->\n<p><a id=\"abbreviation_listing\"></a>\n",
"ABBREVIATION_TABLE_START":"<br/><br/><br/></p><table>\n",
"ABBREVIATION_TABLE_ROW":"<tr>\n",
"ABBREVIATION_TABLE_CELL1":"<td>",
"ABBREVIATION_TABLE_CELL2":"</td><td>", 
"ABBREVIATION_TABLE_CELL_END":"</td></tr>\n",
"ABBREVIATION_TABLE_END":"</table>\n",
"PARAGRAPH_START":"<p>\n",
"PARAGRAPH_END":"</p>\n",
"PARAGRAPH_ANCHOR_START1":"<p id=\"",
"PARAGRAPH_ANCHOR_START2":"<p  id=\"",

"LIST_END":"</ul>\n",
"LIST_START":"<ul >\n",
"LIST_START_FONT1":"<ul style=\"font-size: ",
"LIST_START_FONT2":"%;\">\n",
"UNDERLINE_END":"</u>\n",
"UNDERLINE_START":"<u >\n",

"LIST_ITEM_START1":"<li id=\"",
"LIST_ITEM_START2":"<li>",
"LIST_ITEM_END":"</li>",


"TAG_ID_END": "\">",
"TAG_ID_MIDDLE":"\" ",
"REFERENCE_PARAGRAPH_START":"<p >\n",

"PARAGRAPH_SEPARATOR_START1":"<hr  id=\"",

"PARAGRAPH_SEPARATOR_START2": "\"></hr>\n",
"SEPARATOR_PARAGRAPH":"<hr />\n",
 
"NEWLINE":"\n",

"IMAGE_ANCHOR_START":"<p><br/><img id=\"",
"IMAGE_ANCHOR_START_SIMPLE":"<p><br/><img ",
"IMAGE_ANCHOR2":"\" src=\"",
"IMAGE_SOURCE_START":"<p><br/><img src=\"",
"IMAGE_LOC1":"\" alt=\"[", 
"IMAGE_LOC2":"]\" width=\"300\" style=\"color:black;border:solid;border-width:2px\" />\n", 

"IMAGE_CAPTION1":"<br/><br/><i>", 
"IMAGE_CAPTION2": "</i><br/><br/>\n",
"IMAGE_CAPTION_START":"</p> <p style=\"clear:left; font-style: italic;\">",
             

"PARAGRAPH_ID_BOLD_START":"\"><b>",
"PARAGRAPH_BOLD_END":"</b></p>\n",
"PARAGRAPH_BOLD_START":"<p><b>",        
"INDEX_LINK_START":"<a href=\"#index",  
"INDEX_LINK_END":">Index</a>\n",
"TOC_LINK_START":"<a href=\"TableOfContents",
"TOC_LINK_END":">TOC</a>\n",

"START_LIST":"<ul>\n",
"HEADER_START":"<h",
"HEADER_END":"</h",
"ANCHOR_START":" id=\"",
"SIMPLE_ANCHOR_START":"<a id=\"",
"TAG_END":">\n",
"HEADER1_START":"<h1>",
"HEADER_ID1":"<h1 id=\"",
"HEADER_ID2":"\">",
"HEADER_ID3":"\"" ,
"HEADER_ID4":"<h1 ",


"HEADER1_END":"</h1>\n",
"CITY_HEADER_START":"<h2   id=\"state_",
"FACILITY_HEADER_START":"<h4   id=\"state_",

"FACILITY_INDEX_START":"<h4 id=\"facility_index\" >All Facilities</h4>\n",
   

"QUOTE_START":"<q>",
"QUOTE_END":"</q>",

"CITE_START":"<cite>",
"CITE_END": "</cite>",

"BLOCKQUOTE_START":"\n<p><blockquote>",
"BLOCKQUOTE_END":"</blockquote></p>\n",

"EMPHASIZED_START":"<b>",
"EMPHASIZED_END":"</b>",


"PARAGRAPH_START2":"<p >", 


"CITY_HEADER_END":"</h2>\n",
"CITY_HEADER_ENDx":"</h2><p>\n",
"FACILITY_HEADER_END":"</h4>\n",
"FACILITY_HEADER_ENDx":"</h4><p>\n",


"STATE_ANCHOR_START":"<p><a id=\"state_",
"STATE_HEADING_START":"<h1   id=\"state_",
"GENERAL_ANCHOR_START":"<p><a id=\"general_",
"GENERAL_ANCHOR_START2":"<a id=\"general_",
"ANCHOR_END": "\"></a>\n",
"SIMPLE_ANCHOR_END": "</a>\n",
"ENDING_BOILERPLATE":"<hr/>\n <!-- all content -->\n</body></html>\n",
"ENDING_INDEX_BOILERPLATE":"<!-- end skeleton postfix --></body></html>\n",

"POSTFIX_CONTENT":"<hr /><h1 >More Links</h1><p ><a href=\"#top\">Table of Contents</a></p>\n",


"CITY_ANCHOR_MARKER":"_city_" , 
"FACILITY_ANCHOR_MARKER":"_fac_" , 
"SOURCE_PAGE_HEADER_START":"<p>Source Page: ",
"OPEN_DATE_HEADER_START":"<p>Open: ",
"CLOSE_DATE_HEADER_START":"<p>Closed: ",
"TROOP_COUNT_HEADER_START":"<p>Maximum Troops: ",
"HOSPITAL_ADMISSION_HEADER_START":"<p>Hosp. Admissions: ",

"FACILITY_FOOTER1":"<p ><a href=\"#top\">Top</a>\n<a href=\"#state_",
"FACILITY_FOOTER2":"<a href=\"#state_",
"FACILITY_FOOTER_END":"<a href=\"#index\">Index</a></p>\n",

"INLINE_IMAGE_START1":"<p ><br /><a id=\"",
"INLINE_IMAGE_START2":"\"",
"INLINE_IMAGE_START3":"<p ><br /><a ",
"INLINE_IMAGE_START4":" href=\"javascript:pop_up_image('",
"INLINE_IMAGE_START5":"',", 
"INLINE_IMAGE_START6":"'", 
"INLINE_IMAGE_START7":"');\"><img ",
"INLINE_IMAGE_START8":"',null,'--');\"><img ",
"INLINE_IMAGE_START9":"<p ><br /><img id=\"",
"INLINE_IMAGE_START10":"<p ><br /><img ",


"INLINE_IMAGE_ALT":"alt=\"[", 
"INLINE_IMAGE_STYLE":"]\" style=\"color:black;border:solid;border-width:2px\" src=\"thumbs/", 
"INLINE_IMAGE_END":"\"/></a>\n", 
"INLINE_IMAGE_END2":"\"/>\n", 


"INDEX_CRUMB1":"<a href=\"#",
"INDEX_CRUMB10":"<p><a href=\"#",
"INDEX_TARGET1":"<a href=\"",
"INDEX_TARGET10":"<p><a href=\"",
"INDEX_TARGET2":"#",
"INDEX_CRUMB2":"\">",
"INDEX_CRUMB10_END":"</a></p>\n",
"INDEX_CRUMB_END":"</a>\n",

"POPUP_CLOSE":"<a href=\"javascript:self.close()\">Close</a> the popup.",


"STATE_INDEX_ID":"_state_index",
"STATE_INDEX_TITLE":"State Index",
"CITY_INDEX_ID":"_city_index",
"CITY_INDEX_TITLE":"City Index",
"FACILITY_INDEX_ID":"_facility_index",
"FACILITY_INDEX_TITLE":"Facility Index",
"FACILITY_NO_INDEX_ID":"_facilityno_index",
"FACILITY_NO_INDEX_TITLE":"Facility (No Postal History) Index",
"GENERAL_INDEX_ID":"_general_index",
"GENERAL_INDEX_TITLE":"General Index",

"SKELETONHEREENDxxxxx":"end boilerplate for SKELETON"
	}
],
"VANLIGHT":[
	{
"VANLIGHTSTARTxxxxxxx":"start boilerplate for VANILLA LIGHT",
"SKELETON_PAGE_CLOSEprev":"</div> <!-- container --></body></html>\n",
"SKELETON_PAGE_CLOSE":"<!-- terminate page, but no VANILLA termination -->\n",
"INDEX_SEEALSO_TARGET1":"<a class='seealso'  href=\"",
"HIDDEN_MESSAGE":"",

"LINE_BREAK":"<br/>\n",
"LINE_BREAK2":"<br />",

   "TOC_LINK1":"<p ><a href=\"#top\">Table of Contents</a></p>",
"TOC_LINK2": ">Table of Contents</a></p>",
"END_SECTION":"</div> <!-- end wide col --></div> <!-- end wide row --></div> <!-- main section container -->\n",

"END_BODY":" <!-- end main vanilla section --> <!-- end all vanilla content --></body></html>\n",
"END_BODY_FINAL":" <!-- end main vanilla(f) section, col, row --> </div></div> <!-- end all vanilla(f) content --></section></body></html>\n",
"ABBREVIATION_START":"<!-- start of abbreviation listing -->\n<p><a id=\"abbreviation_listing\"></a>\n",
"ABBREVIATION_TABLE_START":"<br/><br/><br/></p><table>\n",
"ABBREVIATION_TABLE_ROW":"<tr>\n",
"ABBREVIATION_TABLE_CELL1":"<td>",
"ABBREVIATION_TABLE_CELL2":"</td><td>", 
"ABBREVIATION_TABLE_CELL_END":"</td></tr>\n",
"ABBREVIATION_TABLE_END":"</table>\n",
"PARAGRAPH_START":"<p>\n",
"PARAGRAPH_END":"</p>\n",
"PARAGRAPH_ANCHOR_START1":"<p id=\"",
"PARAGRAPH_ANCHOR_START2":"<p  id=\"",

"LIST_END":"</ul>\n",
"LIST_START":"<ul >\n",
"LIST_START_FONT1":"<ul style=\"font-size: ",
"LIST_START_FONT2":"%;\">\n",
"UNDERLINE_END":"</u>\n",
"UNDERLINE_START":"<u >\n",

"LIST_ITEM_START1":"<li id=\"",
"LIST_ITEM_START2":"<li>",
"LIST_ITEM_END":"</li>",


"TAG_ID_END": "\">",
"TAG_ID_MIDDLE":"\" ",
"REFERENCE_PARAGRAPH_START":"<p >\n",

"PARAGRAPH_SEPARATOR_START1":"<hr  id=\"",

"PARAGRAPH_SEPARATOR_START2": "\"></hr>\n",
"SEPARATOR_PARAGRAPH":"<hr />\n",
 
"NEWLINE":"\n",

"IMAGE_ANCHOR_START":"<p><br/><img id=\"",
"IMAGE_ANCHOR_START_SIMPLE":"<p><br/><img ",
"IMAGE_ANCHOR2":"\" src=\"",
"IMAGE_SOURCE_START":"<p><br/><img src=\"",
"IMAGE_LOC1":"\" alt=\"[", 
"IMAGE_LOC2":"]\" width=\"300\" style=\"color:black;border:solid;border-width:2px\" />\n", 

"IMAGE_CAPTION1":"<br/><br/><i>", 
"IMAGE_CAPTION2": "</i><br/><br/>\n",
"IMAGE_CAPTION_START":"</p> <p style=\"clear:left; font-style: italic;\">",
             

"PARAGRAPH_ID_BOLD_START":"\"><b>",
"PARAGRAPH_BOLD_END":"</b></p>\n",
"PARAGRAPH_BOLD_START":"<p><b>",        
"INDEX_LINK_START":"<a href=\"#index",  
"INDEX_LINK_END":">Index</a>\n",
"TOC_LINK_START":"<a href=\"TableOfContents",
"TOC_LINK_END":">TOC</a>\n",

"START_LIST":"<ul>\n",
"HEADER_START":"<h",
"HEADER_END":"</h",
"ANCHOR_START":" id=\"",
"SIMPLE_ANCHOR_START":"<a id=\"",
"TAG_END":">\n",
"HEADER1_START":"<h1>",
"HEADER_ID1":"<h1 id=\"",
"HEADER_ID2":"\">",
"HEADER_ID3":"\"" ,
"HEADER_ID4":"<h1 ",


"HEADER1_END":"</h1>\n",
"CITY_HEADER_START":"<h2   id=\"state_",
"FACILITY_HEADER_START":"<h4   id=\"state_",

"FACILITY_INDEX_START":"<h4 id=\"facility_index\" >All Facilities</h4>\n",
   

"QUOTE_START":"<q>",
"QUOTE_END":"</q>",

"CITE_START":"<cite>",
"CITE_END": "</cite>",

"BLOCKQUOTE_START":"\n<p><blockquote>",
"BLOCKQUOTE_END":"</blockquote></p>\n",

"EMPHASIZED_START":"<b>",
"EMPHASIZED_END":"</b>",


"PARAGRAPH_START2":"<p >", 


"CITY_HEADER_END":"</h2>\n",
"CITY_HEADER_ENDx":"</h2><p>\n",
"FACILITY_HEADER_END":"</h4>\n",
"FACILITY_HEADER_ENDx":"</h4><p>\n",


"STATE_ANCHOR_START":"<p><a id=\"state_",
"STATE_HEADING_START":"<h1   id=\"state_",
"GENERAL_ANCHOR_START":"<p><a id=\"general_",
"GENERAL_ANCHOR_START2":"<a id=\"general_",
"ANCHOR_END": "\"></a>\n",
"SIMPLE_ANCHOR_END": "</a>\n",
"ENDING_BOILERPLATE":"<hr/>\n <!-- all content -->\n</body></html>\n",
"ENDING_INDEX_BOILERPLATE":"<!-- end vanilla postfix --></body></html>\n",

"POSTFIX_CONTENT":"<hr /><h1 >More Links</h1><p ><a href=\"#top\">Table of Contents</a></p>\n",


"CITY_ANCHOR_MARKER":"_city_" , 
"FACILITY_ANCHOR_MARKER":"_fac_" , 
"SOURCE_PAGE_HEADER_START":"<p>Source Page: ",
"OPEN_DATE_HEADER_START":"<p>Open: ",
"CLOSE_DATE_HEADER_START":"<p>Closed: ",
"TROOP_COUNT_HEADER_START":"<p>Maximum Troops: ",
"HOSPITAL_ADMISSION_HEADER_START":"<p>Hosp. Admissions: ",

"FACILITY_FOOTER1":"<p ><a href=\"#top\">Top</a>\n<a href=\"#state_",
"FACILITY_FOOTER2":"<a href=\"#state_",
"FACILITY_FOOTER_END":"<a href=\"#index\">Index</a></p>\n",

"INLINE_IMAGE_START1":"<p ><br /><a id=\"",
"INLINE_IMAGE_START2":"\"",
"INLINE_IMAGE_START3":"<p ><br /><a ",
"INLINE_IMAGE_START4":" href=\"javascript:pop_up_image('",
"INLINE_IMAGE_START5":"',", 
"INLINE_IMAGE_START6":"'", 
"INLINE_IMAGE_START7":"');\"><img ",
"INLINE_IMAGE_START8":"',null,'--');\"><img ",
"INLINE_IMAGE_START9":"<p ><br /><img id=\"",
"INLINE_IMAGE_START10":"<p ><br /><img ",


"INLINE_IMAGE_ALT":"alt=\"[", 
"INLINE_IMAGE_STYLE":"]\" style=\"color:black;border:solid;border-width:2px\" src=\"thumbs/", 
"INLINE_IMAGE_END":"\"/></a>\n", 
"INLINE_IMAGE_END2":"\"/>\n", 


"INDEX_CRUMB1":"<a href=\"#",
"INDEX_CRUMB10":"<p><a href=\"#",
"INDEX_TARGET1":"<a href=\"",
"INDEX_TARGET10":"<p><a href=\"",
"INDEX_TARGET2":"#",
"INDEX_CRUMB2":"\">",
"INDEX_CRUMB10_END":"</a></p>\n",
"INDEX_CRUMB_END":"</a>\n",

"POPUP_CLOSE":"<a href=\"javascript:self.close()\">Close</a> the popup.",


"STATE_INDEX_ID":"_state_index",
"STATE_INDEX_TITLE":"State Index",
"CITY_INDEX_ID":"_city_index",
"CITY_INDEX_TITLE":"City Index",
"FACILITY_INDEX_ID":"_facility_index",
"FACILITY_INDEX_TITLE":"Facility Index",
"FACILITY_NO_INDEX_ID":"_facilityno_index",
"FACILITY_NO_INDEX_TITLE":"Facility (No Postal History) Index",
"GENERAL_INDEX_ID":"_general_index",
"GENERAL_INDEX_TITLE":"General Index",


"VANLIGHTHEREENDxxxxx":"endboilerplate for VANLIGHT"
	}
],
"VANDARK":[
	{
"VANDARKSTARTxxxxxxxxxx":"start boilerplate for VANILLA DARK",
"SKELETON_PAGE_CLOSEprev":"</div> <!-- container --></body></html>\n",
"SKELETON_PAGE_CLOSE":"<!-- terminate page, but no VANILLA termination -->\n",
"INDEX_SEEALSO_TARGET1":"<a class='seealso'  href=\"",
"HIDDEN_MESSAGE":"",

"LINE_BREAK":"<br/>\n",
"LINE_BREAK2":"<br />",

   "TOC_LINK1":"<p ><a href=\"#top\">Table of Contents</a></p>",
"TOC_LINK2": ">Table of Contents</a></p>",
"END_SECTION":"</div> <!-- end wide col --></div> <!-- end wide row --></div> <!-- main section container -->\n",

"END_BODY":" <!-- end main vanilla section --> <!-- end all vanilla content --></body></html>\n",
"END_BODY_FINAL":" <!-- end main vanilla(f) section, col, row --> </div></div> <!-- end all vanilla(f) content --></section></body></html>\n",
"ABBREVIATION_START":"<!-- start of abbreviation listing -->\n<p><a id=\"abbreviation_listing\"></a>\n",
"ABBREVIATION_TABLE_START":"<br/><br/><br/></p><table>\n",
"ABBREVIATION_TABLE_ROW":"<tr>\n",
"ABBREVIATION_TABLE_CELL1":"<td>",
"ABBREVIATION_TABLE_CELL2":"</td><td>", 
"ABBREVIATION_TABLE_CELL_END":"</td></tr>\n",
"ABBREVIATION_TABLE_END":"</table>\n",
"PARAGRAPH_START":"<p>\n",
"PARAGRAPH_END":"</p>\n",
"PARAGRAPH_ANCHOR_START1":"<p id=\"",
"PARAGRAPH_ANCHOR_START2":"<p  id=\"",

"LIST_END":"</ul>\n",
"LIST_START":"<ul >\n",
"LIST_START_FONT1":"<ul style=\"font-size: ",
"LIST_START_FONT2":"%;\">\n",
"UNDERLINE_END":"</u>\n",
"UNDERLINE_START":"<u >\n",

"LIST_ITEM_START1":"<li id=\"",
"LIST_ITEM_START2":"<li>",
"LIST_ITEM_END":"</li>",


"TAG_ID_END": "\">",
"TAG_ID_MIDDLE":"\" ",
"REFERENCE_PARAGRAPH_START":"<p >\n",

"PARAGRAPH_SEPARATOR_START1":"<hr  id=\"",

"PARAGRAPH_SEPARATOR_START2": "\"></hr>\n",
"SEPARATOR_PARAGRAPH":"<hr />\n",
 
"NEWLINE":"\n",

"IMAGE_ANCHOR_START":"<p><br/><img id=\"",
"IMAGE_ANCHOR_START_SIMPLE":"<p><br/><img ",
"IMAGE_ANCHOR2":"\" src=\"",
"IMAGE_SOURCE_START":"<p><br/><img src=\"",
"IMAGE_LOC1":"\" alt=\"[", 
"IMAGE_LOC2":"]\" width=\"300\" style=\"color:black;border:solid;border-width:2px\" />\n", 

"IMAGE_CAPTION1":"<br/><br/><i>", 
"IMAGE_CAPTION2": "</i><br/><br/>\n",
"IMAGE_CAPTION_START":"</p> <p style=\"clear:left; font-style: italic;\">",
             

"PARAGRAPH_ID_BOLD_START":"\"><b>",
"PARAGRAPH_BOLD_END":"</b></p>\n",
"PARAGRAPH_BOLD_START":"<p><b>",        
"INDEX_LINK_START":"<a href=\"#index",  
"INDEX_LINK_END":">Index</a>\n",
"TOC_LINK_START":"<a href=\"TableOfContents",
"TOC_LINK_END":">TOC</a>\n",

"START_LIST":"<ul>\n",
"HEADER_START":"<h",
"HEADER_END":"</h",
"ANCHOR_START":" id=\"",
"SIMPLE_ANCHOR_START":"<a id=\"",
"TAG_END":">\n",
"HEADER1_START":"<h1>",
"HEADER_ID1":"<h1 id=\"",
"HEADER_ID2":"\">",
"HEADER_ID3":"\"" ,
"HEADER_ID4":"<h1 ",


"HEADER1_END":"</h1>\n",
"CITY_HEADER_START":"<h2   id=\"state_",
"FACILITY_HEADER_START":"<h4   id=\"state_",

"FACILITY_INDEX_START":"<h4 id=\"facility_index\" >All Facilities</h4>\n",
   

"QUOTE_START":"<q>",
"QUOTE_END":"</q>",

"CITE_START":"<cite>",
"CITE_END": "</cite>",

"BLOCKQUOTE_START":"\n<p><blockquote>",
"BLOCKQUOTE_END":"</blockquote></p>\n",

"EMPHASIZED_START":"<b>",
"EMPHASIZED_END":"</b>",


"PARAGRAPH_START2":"<p >", 


"CITY_HEADER_END":"</h2>\n",
"CITY_HEADER_ENDx":"</h2><p>\n",
"FACILITY_HEADER_END":"</h4>\n",
"FACILITY_HEADER_ENDx":"</h4><p>\n",


"STATE_ANCHOR_START":"<p><a id=\"state_",
"STATE_HEADING_START":"<h1   id=\"state_",
"GENERAL_ANCHOR_START":"<p><a id=\"general_",
"GENERAL_ANCHOR_START2":"<a id=\"general_",
"ANCHOR_END": "\"></a>\n",
"SIMPLE_ANCHOR_END": "</a>\n",
"ENDING_BOILERPLATE":"<hr/>\n <!-- all content -->\n</body></html>\n",
"ENDING_INDEX_BOILERPLATE":"<!-- end vanilla postfix --></body></html>\n",

"POSTFIX_CONTENT":"<hr /><h1 >More Links</h1><p ><a href=\"#top\">Table of Contents</a></p>\n",


"CITY_ANCHOR_MARKER":"_city_" , 
"FACILITY_ANCHOR_MARKER":"_fac_" , 
"SOURCE_PAGE_HEADER_START":"<p>Source Page: ",
"OPEN_DATE_HEADER_START":"<p>Open: ",
"CLOSE_DATE_HEADER_START":"<p>Closed: ",
"TROOP_COUNT_HEADER_START":"<p>Maximum Troops: ",
"HOSPITAL_ADMISSION_HEADER_START":"<p>Hosp. Admissions: ",

"FACILITY_FOOTER1":"<p ><a href=\"#top\">Top</a>\n<a href=\"#state_",
"FACILITY_FOOTER2":"<a href=\"#state_",
"FACILITY_FOOTER_END":"<a href=\"#index\">Index</a></p>\n",

"INLINE_IMAGE_START1":"<p ><br /><a id=\"",
"INLINE_IMAGE_START2":"\"",
"INLINE_IMAGE_START3":"<p ><br /><a ",
"INLINE_IMAGE_START4":" href=\"javascript:pop_up_image('",
"INLINE_IMAGE_START5":"',", 
"INLINE_IMAGE_START6":"'", 
"INLINE_IMAGE_START7":"');\"><img ",
"INLINE_IMAGE_START8":"',null,'--');\"><img ",
"INLINE_IMAGE_START9":"<p ><br /><img id=\"",
"INLINE_IMAGE_START10":"<p ><br /><img ",


"INLINE_IMAGE_ALT":"alt=\"[", 
"INLINE_IMAGE_STYLE":"]\" style=\"color:black;border:solid;border-width:2px\" src=\"thumbs/", 
"INLINE_IMAGE_END":"\"/></a>\n", 
"INLINE_IMAGE_END2":"\"/>\n", 


"INDEX_CRUMB1":"<a href=\"#",
"INDEX_CRUMB10":"<p><a href=\"#",
"INDEX_TARGET1":"<a href=\"",
"INDEX_TARGET10":"<p><a href=\"",
"INDEX_TARGET2":"#",
"INDEX_CRUMB2":"\">",
"INDEX_CRUMB10_END":"</a></p>\n",
"INDEX_CRUMB_END":"</a>\n",

"POPUP_CLOSE":"<a href=\"javascript:self.close()\">Close</a> the popup.",


"STATE_INDEX_ID":"_state_index",
"STATE_INDEX_TITLE":"State Index",
"CITY_INDEX_ID":"_city_index",
"CITY_INDEX_TITLE":"City Index",
"FACILITY_INDEX_ID":"_facility_index",
"FACILITY_INDEX_TITLE":"Facility Index",
"FACILITY_NO_INDEX_ID":"_facilityno_index",
"FACILITY_NO_INDEX_TITLE":"Facility (No Postal History) Index",
"GENERAL_INDEX_ID":"_general_index",
"GENERAL_INDEX_TITLE":"General Index",

"VANDARKENDSxxxxxxxxxx":"endboilerplate for VANILLA DARK"
	}
]
}

        
}
